<?xml version="1.0" encoding="utf-8"?>
<!-- Generator: Adobe Illustrator 19.0.0, SVG Export Plug-In . SVG Version: 6.00 Build 0)  -->
<!DOCTYPE svg PUBLIC "-//W3C//DTD SVG 1.1//EN" "http://www.w3.org/Graphics/SVG/1.1/DTD/svg11.dtd">
<svg version="1.1" id="logo_1_" xmlns="http://www.w3.org/2000/svg" xmlns:xlink="http://www.w3.org/1999/xlink" x="0px" y="0px"
	 viewBox="157 35.7 455 70" style="enable-background:new 157 35.7 455 70;" xml:space="preserve">
<style type="text/css">
	.st0{fill:#CCE538;}
	.st1{display:none;opacity:0.4588;}
	.st2{display:inline;}
	.st3{fill:#9FD324;}
</style>
<g id="Color_Fill_2_copy_2Opacity_Mask_1_">
</g>
<g id="Vector_Smart_Object_xA0_Image_1_">
	<g>
		<g>
			<path class="st0" d="M229.9,84.7l14.2-16h-13.7v-6.6h24.5v5.7l-14.2,16h14.2v6.6h-25V84.7z"/>
			<path class="st0" d="M268.7,61.9h7.5l12,28.5h-8.4l-2.1-5.1h-10.9l-2,5.1h-8.3L268.7,61.9z M275.6,79.3l-3.1-8l-3.2,8H275.6z"/>
			<path class="st0" d="M300.9,61.9h7.5l12.1,28.5h-8.4l-2.1-5.1h-10.9l-2,5.1h-8.3L300.9,61.9z M307.7,79.3l-3.1-8l-3.2,8H307.7z"
				/>
			<path class="st0" d="M323.2,62.2h7.9v11.5l9.7-11.5h9.3l-10.7,12.2l11.1,16.1h-9.4L334,80l-2.9,3.2v7.3h-7.9V62.2z"/>
			<path class="st0" d="M363.8,90.9c-2.5,0-4.9-0.4-7.2-1.2c-2.3-0.8-4.3-2-6.1-3.5l4.4-5.2c2.8,2.2,5.9,3.4,9.2,3.4
				c1,0,1.8-0.2,2.4-0.5c0.5-0.3,0.8-0.8,0.8-1.4v-0.1c0-0.3,0-0.5-0.2-0.8c-0.1-0.2-0.4-0.4-0.8-0.7c-0.4-0.2-0.9-0.4-1.4-0.6
				c-0.6-0.2-1.4-0.4-2.4-0.6c-1.5-0.4-2.9-0.7-4.2-1.2c-1.3-0.4-2.4-0.9-3.4-1.6c-0.9-0.7-1.7-1.5-2.2-2.5s-0.8-2.2-0.8-3.6l0,0
				c0-1.3,0.3-2.5,0.8-3.6s1.2-2.1,2.2-2.9c0.9-0.8,2.1-1.4,3.5-1.9c1.3-0.4,2.9-0.7,4.6-0.7c2.4,0,4.6,0.3,6.5,0.9s3.6,1.6,5.2,2.8
				l-3.9,5.6c-1.3-0.9-2.6-1.6-4-2.1c-1.3-0.4-2.7-0.7-3.9-0.7c-0.9,0-1.7,0.2-2.1,0.5c-0.5,0.4-0.7,0.8-0.7,1.3v0.1
				c0,0.3,0.1,0.6,0.2,0.9c0.1,0.2,0.4,0.4,0.8,0.7c0.4,0.2,0.9,0.4,1.5,0.6s1.4,0.4,2.4,0.6c1.6,0.4,3.1,0.8,4.4,1.2
				c1.3,0.4,2.4,1,3.3,1.7s1.6,1.5,2.1,2.4s0.7,2.1,0.7,3.4v0.1c0,1.4-0.3,2.7-0.8,3.9c-0.5,1.1-1.3,2.1-2.3,2.9s-2.2,1.4-3.6,1.8
				C367.1,90.7,365.6,90.9,363.8,90.9z"/>
			<path class="st0" d="M387.2,79.8l-10.8-17.7h8.9l5.8,10.3l5.9-10.3h8.8l-10.7,17.6v10.7h-7.9V79.8L387.2,79.8z"/>
			<path class="st0" d="M419.4,90.9c-2.5,0-4.9-0.4-7.2-1.2c-2.3-0.8-4.3-2-6.1-3.5l4.4-5.2c2.8,2.2,5.9,3.4,9.2,3.4
				c1,0,1.8-0.2,2.4-0.5c0.5-0.3,0.8-0.8,0.8-1.4v-0.1c0-0.3-0.1-0.5-0.2-0.8c-0.1-0.2-0.4-0.4-0.8-0.7c-0.4-0.2-0.9-0.4-1.4-0.6
				c-0.6-0.2-1.4-0.4-2.4-0.6c-1.5-0.4-2.9-0.7-4.2-1.2c-1.3-0.4-2.4-0.9-3.4-1.6c-0.9-0.7-1.7-1.5-2.2-2.5s-0.8-2.2-0.8-3.6l0,0
				c0-1.3,0.3-2.5,0.8-3.6s1.2-2.1,2.2-2.9c0.9-0.8,2.1-1.4,3.5-1.9s2.9-0.7,4.6-0.7c2.4,0,4.6,0.3,6.5,0.9s3.6,1.6,5.2,2.8
				l-3.9,5.6c-1.3-0.9-2.6-1.6-4-2.1c-1.3-0.4-2.7-0.7-3.9-0.7c-0.9,0-1.7,0.2-2.1,0.5c-0.5,0.4-0.7,0.8-0.7,1.3v0.1
				c0,0.3,0.1,0.6,0.2,0.9c0.1,0.2,0.4,0.4,0.8,0.7c0.4,0.2,0.9,0.4,1.5,0.6s1.4,0.4,2.4,0.6c1.6,0.4,3.1,0.8,4.4,1.2
				c1.3,0.4,2.4,1,3.3,1.7s1.6,1.5,2.1,2.4s0.7,2.1,0.7,3.4v0.1c0,1.4-0.3,2.7-0.8,3.9s-1.3,2.1-2.3,2.9s-2.2,1.4-3.6,1.8
				C422.7,90.7,421.1,90.9,419.4,90.9z"/>
			<path class="st0" d="M441.5,69H433v-6.9h24.8V69h-8.5v21.4h-7.9L441.5,69L441.5,69z"/>
			<path class="st0" d="M461.3,62.2H484v6.7h-15v4.3h13.6v6.2H469v4.5h15.2v6.6h-22.9L461.3,62.2L461.3,62.2z"/>
			<path class="st0" d="M488.2,62.2h22.7v6.7h-15v4.3h13.6v6.2h-13.6v4.5h15.2v6.6h-22.9L488.2,62.2L488.2,62.2z"/>
			<path class="st0" d="M515.2,62.2h8.3l6.7,11l6.7-11h8.3v28.3h-7.8V74.2l-7.2,11.1h-0.1l-7.2-11v16.2h-7.7V62.2L515.2,62.2z"/>
		</g>
		<g>
			<path class="st0" d="M554.9,62.2h3l17.8,22.7V62.2h3.1v28.3h-2.6l-18.3-23.2v23.2h-3.1L554.9,62.2L554.9,62.2z"/>
			<path class="st0" d="M586.9,62.2h3.2v25.3H606v3h-19.1V62.2L586.9,62.2z"/>
		</g>
		<g>
			<path class="st0" d="M547.6,86.1h3.7v4.3h-3.7V86.1z"/>
		</g>
	</g>
</g>
<g id="Color_Fill_2">
	<g>
		<polygon class="st0" points="164.7,47.9 193.4,47.9 193.4,59.5 176.1,59.5 176.1,76.2 164.7,76.2 		"/>
	</g>
</g>
<g id="Color_Fill_2_copy">
	<g>
		<rect x="179.1" y="62.2" class="st0" width="28.7" height="28.3"/>
	</g>
</g>
<g id="Color_Fill_2_copy_2" class="st1">
	<g class="st2">
		<rect x="987.7" y="88.8" class="st3" width="28.7" height="28.3"/>
	</g>
</g>
</svg>
