<?xml version="1.0" encoding="utf-8"?>
<!-- Generator: Adobe Illustrator 26.3.1, SVG Export Plug-In . SVG Version: 6.00 Build 0)  -->
<svg version="1.1" id="Laag_1" xmlns="http://www.w3.org/2000/svg" xmlns:xlink="http://www.w3.org/1999/xlink" x="0px" y="0px"
	 viewBox="0 0 240 92.5" style="enable-background:new 0 0 240 92.5;" xml:space="preserve">
<style type="text/css">
	.st0{fill-rule:evenodd;clip-rule:evenodd;fill:#7D76B6;}
	.st1{fill:#231F20;}
</style>
<g>
	<g>
		<g>
			<path class="st0" d="M88.4,22L43.7,65.7l3.4,3.3L95,22.1L88.4,22z M97,26.5L56.9,65.7l3.4,3.3l43.2-42.3L97,26.5z M104.8,31.8
				l-0.2,0.1l-34.7,34l3.4,3.4l38.1-37.4L104.8,31.8z M100,49.3L83.2,65.7l3.3,3.6l20.2-19.9L100,49.3z M96.3,66l3.3,3.5l20.2-20
				h-6.6L96.3,66z M41.6,22.5c3.2-4,4.1-9.6,1.9-14.3C41.2,3,35.7-0.4,30,0c-4.2,0.3-8.5,2.2-10.4,5.9l-3.8,14.6l0.2,0.4
				c1.2,0.6,0.9-1,1.6-1.4l8.5-8.3c-0.1-0.4-0.6-0.5-1-0.5c-0.3-0.3-0.7-0.6-0.7-1.1c-0.4-1.7-1.1-4.1,0.5-5.5
				c0.2,0.1,0.4,0.3,0.4,0.6c0.1,0.4,0.4,1.1,1,1c2.8-1.5,6.6-1.2,9.3,0.4c2.9,1.7,4.2,4.8,4.3,7.9c0,4.2-3.3,6.6-6.1,9.4L9.7,46.9
				c-4.9,5-8.6,10.9-9.7,17.7l4.3,4c1-6.4,3.5-12.5,8.1-17.4L41.6,22.5z M79.5,17.5l-49,48.1l3.3,3.2l52.7-51.4L79.5,17.5z
				 M27.9,48.9l-6.6-0.2c-4.9,4.5-10.6,9.6-11.7,16.2l4,3.7l0.8-2.9C16.3,58.6,23.1,54.2,27.9,48.9z M64.3,19.4l-43,42.2
				c-1,1.2-1.7,2.4-2.1,3.9l3.7,3.4c0.9-3.9,4.6-6.3,7.2-9.1l41-40.4H64.3z M161.8,22.5c3.2-4,4.1-9.6,1.9-14.3
				c-2.3-5.2-7.9-8.6-13.6-8.2c-4.2,0.3-8.5,2.2-10.4,5.9L136,20.5l0.2,0.4c1.2,0.6,0.9-1,1.6-1.4l8.5-8.3c-0.1-0.4-0.6-0.5-1-0.5
				c-0.3-0.3-0.7-0.6-0.7-1.1c-0.4-1.7-1.1-4.1,0.5-5.5c0.2,0.1,0.4,0.3,0.4,0.6c0.1,0.4,0.4,1.1,1,1c2.8-1.5,6.6-1.2,9.3,0.4
				c2.9,1.7,4.2,4.8,4.3,7.9c0,4.2-3.3,6.6-6.1,9.4l-24.1,23.5c-4.9,5.1-8.6,10.9-9.7,17.7l4.3,4c1-6.4,3.5-12.5,8.1-17.4
				L161.8,22.5z M224.9,31.8l-0.2,0.1l-34.7,34l3.4,3.4l38.1-37.4L224.9,31.8z M220.3,49.3l-16.9,16.4l3.3,3.6l20.2-19.9L220.3,49.3
				z M217.1,26.5L177,65.7l3.4,3.3l43.3-42.3L217.1,26.5z M233.4,49.5L216.5,66l3.3,3.5l20.2-20H233.4z M208.6,22l-44.7,43.7
				l3.4,3.3l47.9-46.9L208.6,22z M184.4,19.4l-43,42.2c-1,1.2-1.7,2.4-2.1,3.9l3.7,3.4c0.9-3.9,4.6-6.3,7.2-9.1l41-40.4H184.4z
				 M148,48.9l-6.6-0.2c-4.9,4.5-10.6,9.6-11.7,16.2l4,3.7l0.8-2.9C136.4,58.6,143.2,54.2,148,48.9z M199.6,17.5l-49,48.1l3.3,3.2
				l52.7-51.4L199.6,17.5z"/>
		</g>
	</g>
	<g>
		<g>
			<path class="st1" d="M69,82.8c-0.9,0-1.5,0.2-2.1,0.7c-0.4,0.3-0.8,0.7-1,1.2h0c-0.4-1.1-1.4-1.9-2.6-1.9c-1.5,0-2.4,0.8-2.9,1.7
				h-0.1L60.2,83h-1.5c0.1,0.8,0.1,1.6,0.1,2.5v6.8h1.7v-5.6c0-0.3,0-0.6,0.1-0.8c0.3-0.8,1-1.7,2.1-1.7c1.3,0,1.9,1.1,1.9,2.6v5.6
				h1.7v-5.8c0-0.3,0.1-0.6,0.1-0.8c0.3-0.8,1-1.5,2-1.5c1.4,0,2,1.1,2,2.9v5.3h1.7v-5.5C72.1,83.6,70.3,82.8,69,82.8z M43,86.8h2.6
				v3.9c-0.4,0.2-1.1,0.3-2.2,0.3c-3,0-5-1.9-5-5.2c0-3.3,2.1-5.2,5.2-5.2c1.3,0,2.2,0.3,2.9,0.6l0.4-1.4c-0.6-0.3-1.7-0.6-3.2-0.6
				c-4.4,0-7,2.8-7,6.7c0,2,0.7,3.8,1.8,4.8c1.3,1.2,2.9,1.7,4.9,1.7c1.8,0,3.2-0.4,4-0.7v-6.2H43V86.8z M53.2,82.8
				c-2.7,0-4.4,2.2-4.4,5c0,2.8,1.7,4.7,4.6,4.7c1.5,0,2.5-0.3,3.1-0.6l-0.3-1.2c-0.6,0.3-1.4,0.5-2.6,0.5c-1.7,0-3.2-0.9-3.2-3.2
				H57c0-0.2,0.1-0.4,0.1-0.8C57,85.4,56.2,82.8,53.2,82.8z M50.5,86.7c0.1-1.2,0.9-2.8,2.6-2.8c1.9,0,2.4,1.7,2.4,2.8H50.5z
				 M78.1,82.8c-2.7,0-4.4,2.2-4.4,5c0,2.8,1.7,4.7,4.6,4.7c1.5,0,2.5-0.3,3.1-0.6l-0.3-1.2c-0.6,0.3-1.4,0.5-2.6,0.5
				c-1.7,0-3.2-0.9-3.2-3.2h6.6c0-0.2,0.1-0.4,0.1-0.8C82,85.4,81.2,82.8,78.1,82.8z M75.4,86.7c0.1-1.2,0.9-2.8,2.6-2.8
				c1.9,0,2.4,1.7,2.4,2.8H75.4z M87,82.8c-2.7,0-4.4,2.2-4.4,5c0,2.8,1.7,4.7,4.6,4.7c1.5,0,2.5-0.3,3.1-0.6L90,90.7
				c-0.6,0.3-1.4,0.5-2.6,0.5c-1.7,0-3.2-0.9-3.2-3.2h6.6c0-0.2,0.1-0.4,0.1-0.8C90.9,85.4,90,82.8,87,82.8z M84.3,86.7
				c0.1-1.2,0.9-2.8,2.6-2.8c1.9,0,2.4,1.7,2.4,2.8H84.3z M96.8,82.8c-1.5,0-2.6,0.9-3.1,1.8h0L93.6,83h-1.5
				c0.1,0.8,0.1,1.6,0.1,2.5v6.8h1.7v-5.6c0-0.3,0-0.6,0.1-0.8c0.3-0.9,1.2-1.7,2.3-1.7c1.6,0,2.2,1.3,2.2,2.8v5.4h1.7v-5.6
				C100.1,83.5,98.1,82.8,96.8,82.8z M104.5,80.3l-1.7,0.4V83h-1.4v1.3h1.4v5.1c0,1.1,0.2,1.9,0.7,2.4c0.4,0.5,1,0.7,1.8,0.7
				c0.7,0,1.2-0.1,1.5-0.2l-0.1-1.3c-0.2,0.1-0.5,0.1-1,0.1c-0.9,0-1.3-0.7-1.3-1.8v-5h2.4V83h-2.4V80.3z M111.6,82.8
				c-2.7,0-4.4,2.2-4.4,5c0,2.8,1.7,4.7,4.6,4.7c1.5,0,2.5-0.3,3.1-0.6l-0.3-1.2c-0.6,0.3-1.4,0.5-2.6,0.5c-1.7,0-3.2-0.9-3.2-3.2
				h6.6c0-0.2,0.1-0.4,0.1-0.8C115.5,85.4,114.6,82.8,111.6,82.8z M108.9,86.7c0.1-1.2,0.9-2.8,2.6-2.8c1.9,0,2.4,1.7,2.4,2.8H108.9
				z M122.6,79.3H121v13h7.2v-1.4h-5.5V79.3z M136.1,86.6c0-1.9-0.7-3.8-3.5-3.8c-1.2,0-2.3,0.3-3.1,0.8l0.4,1.1
				c0.7-0.4,1.6-0.7,2.4-0.7c1.9,0,2.1,1.4,2.1,2.2v0.2c-3.6,0-5.6,1.2-5.6,3.5c0,1.3,1,2.7,2.9,2.7c1.3,0,2.3-0.7,2.9-1.4h0.1
				l0.1,1.2h1.5c-0.1-0.6-0.2-1.4-0.2-2.2V86.6z M134.5,89.2c0,0.2,0,0.4-0.1,0.5c-0.3,0.8-1,1.6-2.3,1.6c-0.9,0-1.6-0.5-1.6-1.6
				c0-1.8,2.1-2.1,4-2.1V89.2z M142.7,82.8c-1.5,0-2.6,0.9-3.1,1.8h0l-0.1-1.5H138c0.1,0.8,0.1,1.6,0.1,2.5v6.8h1.7v-5.6
				c0-0.3,0-0.6,0.1-0.8c0.3-0.9,1.2-1.7,2.3-1.7c1.6,0,2.2,1.3,2.2,2.8v5.4h1.7v-5.6C146,83.5,144,82.8,142.7,82.8z M156.1,78.6
				h-1.7v5.6h0c-0.4-0.8-1.4-1.4-2.8-1.4c-2.3,0-4.2,1.9-4.2,5c0,2.8,1.7,4.7,4,4.7c1.5,0,2.7-0.8,3.2-1.8h0l0.1,1.6h1.5
				c-0.1-0.6-0.1-1.6-0.1-2.4V78.6z M154.4,88.4c0,0.3,0,0.5-0.1,0.7c-0.3,1.3-1.3,2-2.5,2c-1.8,0-2.8-1.6-2.8-3.4
				c0-2.1,1-3.6,2.8-3.6c1.3,0,2.2,0.9,2.4,2c0.1,0.2,0.1,0.5,0.1,0.7V88.4z M161.1,86.9c-1.2-0.5-1.8-0.8-1.8-1.6
				c0-0.7,0.6-1.3,1.6-1.3c0.9,0,1.5,0.3,1.9,0.5l0.4-1.2c-0.5-0.3-1.3-0.6-2.3-0.6c-2,0-3.2,1.2-3.2,2.7c0,1.1,0.8,2,2.5,2.6
				c1.3,0.5,1.7,0.9,1.7,1.7c0,0.8-0.6,1.4-1.8,1.4c-0.8,0-1.7-0.3-2.2-0.7l-0.4,1.3c0.7,0.4,1.6,0.6,2.6,0.6c2.2,0,3.5-1.2,3.5-2.8
				C163.6,88.3,162.7,87.5,161.1,86.9z M175.6,82.8c-0.9,0-1.5,0.2-2.1,0.7c-0.4,0.3-0.8,0.7-1,1.2h0c-0.4-1.1-1.4-1.9-2.6-1.9
				c-1.5,0-2.4,0.8-2.9,1.7h-0.1l-0.1-1.5h-1.5c0.1,0.8,0.1,1.6,0.1,2.5v6.8h1.7v-5.6c0-0.3,0-0.6,0.1-0.8c0.3-0.8,1-1.7,2.1-1.7
				c1.3,0,1.9,1.1,1.9,2.6v5.6h1.7v-5.8c0-0.3,0.1-0.6,0.1-0.8c0.3-0.8,1-1.5,2-1.5c1.4,0,2,1.1,2,2.9v5.3h1.7v-5.5
				C178.7,83.6,176.8,82.8,175.6,82.8z M184.4,82.8c-2.7,0-4.4,2.2-4.4,5c0,2.8,1.7,4.7,4.6,4.7c1.5,0,2.5-0.3,3.1-0.6l-0.3-1.2
				c-0.6,0.3-1.4,0.5-2.6,0.5c-1.7,0-3.2-0.9-3.2-3.2h6.6c0-0.2,0.1-0.4,0.1-0.8C188.2,85.4,187.4,82.8,184.4,82.8z M181.6,86.7
				c0.1-1.2,0.9-2.8,2.6-2.8c1.9,0,2.4,1.7,2.4,2.8H181.6z M193.6,82.8c-2.7,0-4.4,2.2-4.4,5c0,2.8,1.7,4.7,4.6,4.7
				c1.5,0,2.5-0.3,3.1-0.6l-0.3-1.2c-0.6,0.3-1.4,0.5-2.6,0.5c-1.7,0-3.2-0.9-3.2-3.2h6.6c0-0.2,0.1-0.4,0.1-0.8
				C197.5,85.4,196.7,82.8,193.6,82.8z M190.9,86.7c0.1-1.2,0.9-2.8,2.6-2.8c1.9,0,2.4,1.7,2.4,2.8H190.9z M202.9,82.8
				c-1.1,0-2.2,0.8-2.6,2h-0.1l-0.1-1.8h-1.5c0.1,0.9,0.1,1.8,0.1,2.9v6.4h1.7v-5c0-0.3,0-0.6,0.1-0.8c0.2-1.3,1.1-2.2,2.3-2.2
				c0.2,0,0.4,0,0.6,0.1v-1.6C203.2,82.8,203.1,82.8,202.9,82.8z"/>
		</g>
	</g>
</g>
</svg>
